<?xml version="1.0" encoding="utf-8"?>
<!-- Generator: Adobe Illustrator 16.0.0, SVG Export Plug-In . SVG Version: 6.00 Build 0)  -->
<!DOCTYPE svg PUBLIC "-//W3C//DTD SVG 1.1//EN" "http://www.w3.org/Graphics/SVG/1.1/DTD/svg11.dtd">
<svg version="1.1" id="Layer_1" xmlns="http://www.w3.org/2000/svg" xmlns:xlink="http://www.w3.org/1999/xlink" x="0px" y="0px"
	 width="60px" height="60px" viewBox="0 0 60 60" enable-background="new 0 0 60 60" xml:space="preserve">
<g opacity="0.8">
	<path fill="none" d="M55.5,0H4.4C2,0,0,2,0,4.3v51.3C0,58,2,60,4.4,60h51.1c2.5,0,4.5-2,4.5-4.3V4.3C60,2,58,0,55.5,0z M47.8,20.9
		c0,0.4,0,0.8,0,1.2c0,12.2-9.2,26.2-26.2,26.2c-5.2,0-10-1.5-14.1-4.1c0.7,0.1,1.5,0.1,2.2,0.1c4.3,0,8.3-1.5,11.4-3.899
		c-4-0.101-7.4-2.7-8.6-6.4c0.6,0.1,1.1,0.2,1.7,0.2c0.8,0,1.7-0.101,2.4-0.3c-4.2-0.801-7.4-4.601-7.4-9v-0.1
		c1.2,0.7,2.7,1.1,4.2,1.2c-2.5-1.6-4.1-4.5-4.1-7.7c0-1.7,0.5-3.3,1.2-4.6c4.5,5.6,11.3,9.2,19,9.6c-0.2-0.7-0.2-1.4-0.2-2.1
		c0-5.1,4.101-9.2,9.2-9.2c2.6,0,5,1.1,6.7,2.9c2.1-0.4,4.1-1.2,5.8-2.2c-0.7,2.1-2.1,3.9-4,5.1c1.9-0.2,3.6-0.7,5.3-1.4
		C51.2,17.9,49.6,19.6,47.8,20.9z"/>
</g>
<path fill="#363636" d="M60,55.7V4.3"/>
<path fill="#363636" d="M0,4.3v51.3"/>
<path fill="#363636" d="M47.8,20.9c0,0.4,0,0.8,0,1.2c0,12.2-9.2,26.2-26.2,26.2c-5.2,0-10-1.5-14.1-4.1c0.7,0.1,1.5,0.1,2.2,0.1
	c4.3,0,8.3-1.5,11.4-3.899c-4-0.101-7.4-2.7-8.6-6.4c0.6,0.1,1.1,0.2,1.7,0.2c0.8,0,1.7-0.101,2.4-0.3c-4.2-0.801-7.4-4.601-7.4-9
	v-0.1c1.2,0.7,2.7,1.1,4.2,1.2c-2.5-1.6-4.1-4.5-4.1-7.7c0-1.7,0.5-3.3,1.2-4.6c4.5,5.6,11.3,9.2,19,9.6c-0.2-0.7-0.2-1.4-0.2-2.1
	c0-5.1,4.101-9.2,9.2-9.2c2.6,0,5,1.1,6.7,2.9c2.1-0.4,4.1-1.2,5.8-2.2c-0.7,2.1-2.1,3.9-4,5.1c1.9-0.2,3.6-0.7,5.3-1.4
	C51.2,17.9,49.6,19.6,47.8,20.9z"/>
</svg>
