<?xml version="1.0" encoding="utf-8"?>
<!-- Generator: Adobe Illustrator 16.0.0, SVG Export Plug-In . SVG Version: 6.00 Build 0)  -->
<!DOCTYPE svg PUBLIC "-//W3C//DTD SVG 1.1//EN" "http://www.w3.org/Graphics/SVG/1.1/DTD/svg11.dtd">
<svg version="1.1" id="Layer_1" xmlns="http://www.w3.org/2000/svg" xmlns:xlink="http://www.w3.org/1999/xlink" x="0px" y="0px"
	 width="60px" height="60px" viewBox="0 0 60 60" enable-background="new 0 0 60 60" xml:space="preserve">
<path fill="none" d="M55.5,0H4.4C2,0,0,1.9,0,4.3v51.3C0,58,2,60,4.4,60h13.1c0,0,0,0,0.1,0l0,0c-0.1-2,0-4.5,0.5-6.7
	c0.6-2.399,3.8-16,3.8-16S21,35.4,21,32.7c0-4.3,2.5-7.6,5.7-7.6c2.7,0,4,2,4,4.4c0,2.7-1.7,6.7-2.6,10.4c-0.7,3.1,1.6,5.6,4.6,5.6
	c5.6,0,9.3-7.1,9.3-15.6c0-6.4-4.3-11.2-12.2-11.2c-8.9,0-14.4,6.6-14.4,14c0,2.6,0.8,4.399,1.9,5.7c0.5,0.6,0.6,0.899,0.4,1.6
	c-0.1,0.5-0.5,1.8-0.6,2.4c-0.2,0.699-0.8,1-1.5,0.699c-4.1-1.699-6-6.199-6-11.199c0-8.3,7-18.3,21-18.3
	c11.2,0,18.601,8.1,18.601,16.8c0,11.5-6.4,20.1-15.8,20.1c-3.2,0-6.101-1.7-7.2-3.7c0,0-1.7,6.8-2.1,8.101
	c-0.5,1.699-1.3,3.5-2.2,5h19.4h14.4C58,60,60,58,60,55.6V4.3C60,1.9,58,0,55.5,0z"/>
<path fill="#363636" d="M4.4,60h13.1c0,0,0,0,0.1,0l0,0c-0.1-2,0-4.5,0.5-6.7c0.6-2.399,3.8-16,3.8-16S21,35.4,21,32.7
	c0-4.3,2.5-7.6,5.7-7.6c2.7,0,4,2,4,4.4c0,2.7-1.7,6.7-2.6,10.4c-0.7,3.1,1.6,5.6,4.6,5.6c5.6,0,9.3-7.1,9.3-15.6
	c0-6.4-4.3-11.2-12.2-11.2c-8.9,0-14.4,6.6-14.4,14c0,2.6,0.8,4.399,1.9,5.7c0.5,0.6,0.6,0.899,0.4,1.6c-0.1,0.5-0.5,1.8-0.6,2.4
	c-0.2,0.699-0.8,1-1.5,0.699c-4.1-1.699-6-6.199-6-11.199c0-8.3,7-18.3,21-18.3c11.2,0,18.601,8.1,18.601,16.8
	c0,11.5-6.4,20.1-15.8,20.1c-3.2,0-6.101-1.7-7.2-3.7c0,0-1.7,6.8-2.1,8.101c-0.5,1.699-1.3,3.5-2.2,5h19.4h14.4"/>
</svg>
